Fleadust, al-Razi's;Nikel:1,Choleric Base:1,Antimoni:1,Orpiment:1,Sanguine Base:2;25
Arabian Fire, Hugh's;Naptha:2,Choleric Base:3,Pitchblende:1,Gum:1,Sanguine Base:1;45
Quickmove, Hayyan's;Eastern Black Bean:1,Solanaceae:1,Phlegmatic Base:1,Sanguine Base:1,Camomile:1;25
New-wind, John Rupesc's;Choleric Base:1,Eastern Black Bean:2,Solanaceae:1,Camomile:1;45
New-wind, Michael Scot's;Choleric Base:1,Mondragora:1,Solanaceae:2,Sanguine Base:2,Camomile:1;35
Truesight, Rufinus of G's;Alum:1,Mondragora:2,Phlegmatic Base:1,Sanguine Base:2,Camomile:1;35
Noxious Aroma, Petrus B's;Brimstone:5,Choleric Base:3,Sanguine Base:1;45
Hardarmor, Brother Elias';Nikel:3,Zinken:2,Zincblende:1,Aqua Regia:1,Sanguine Base:3;35
Eater Water, Soloman's;Solanaceae:1,Zincblende:1,Orpiment:2,Aqua Regia:3,Phlegmatic Base:2;25
Greatpower, Albertus M's;Nikel:2,Choleric Base:1,Pitchblende:1,Gum:1,Sanguine Base:2;45
Transformation, Morienus';Brimstone:3,Pure Gold:3,Aqua Regia:1,Manganes:1,Orpiment:1;25
Eyeburn, Nicolas Flammel's;Brimstone:2,Choleric Base:2,Antimoni:1,Melanc. Base:1;45
Breath of Death, Smargdn;Marsh Vapor:1,Choleric Base:4,Aqua Regia:1,White Cinnabar:2,Melanc. Base:4;25
Strongedge, Petrus Bonus';Nikel:2,Aqua Regia:1,Gum:1,Sanguine Base:4;45
Strongedge, John of R's;Nikel:1,Aqua Regia:1,Gum:1,Ziken:2,Sanguine Base:3;35
Ironarm, Jabir's;Alum:1,Eastern Black Bean:2,Manganes:1,Sanguine Base:3;25
Greatpower, ibn Rushd's;Zinken:3,Pitchblende:1,Sanguine Base:3,Choleric Base:1;25
Trueflight, John Dausten's;Alum:1,Antimoni:1,Solanaceae:2,Choleric Base:1;45
Arabian Fire, Gerber's;Naptha:2,Choleric Base:4,Gum:1,Sanguine Base:1,Manganes:1;25
Eater Water, Alfred of S's;Zinken:2,Aqua Regia:5,Antimoni:2,Phlegmatic Base:3;35
Sunburst, African;Zinken:1,Zincblende:1,Aqua Regia:1,Manganes:1,Choleric Base:2;25
Black Cloud, Rufinus of G's;Choleric Base:2,Zincblende:2,Pitchblende:2,Melanc. Base:1;35
Eyeburn, Solomon's;Brimstone:2,Choleric Base:2,Aqua Regia:1;25
Ironarm, Rob de Ketene's;Alum:1,Eastern Black Bean:2,Zinken:1,Sanguine Base:2,Choleric Base:1;35
Sunburst, Raimundus L's;Brimstone:2,Zinken:1,Aqua Regia:1,Manganes:1,White Cinnabar:1;35
Firewall, Jabir's;Naptha:1,Nikel:3,Phlegmatic Base:3,Sanguine Base:3,Manganes:1;25
Essence o'Grace, Michael S';Zincblende:1,Phlegmatic Base:2,Sanguine Base:3,Camomile:2;35
Transformation, Niclas of A's;Brimstone:1,Pure Gold:1,Zincblende:1,Aqua Regia:1,Orpiment:1;45
Sunburst, Brother Elias';Brimstone:2,Zinken:1,Aqua Regia:1,Manganes:1;45
Greatpower, Jildaki's;Zinken:2,Pitchblende:1,Solanaceae:1,Sanguine Base:4,Choleric Base:1;35
Deadly Blade, Hayyan's;Melanc. Base:2,Aqua Regia:1,Mondragora:1,Sanguine Base:3,White Cinnabar:1;25
Truesight, Arfa Ras';Mondragora:3,Solanaceae:1,Phlegmatic Base:1,Sanguine Base:1;25
Essence o'Grace, Avicenna's;Zincblende:1,Gum:1,Phlegmatic Base:1,Sanguine Base:1,Camomile:1;45
Essence o'Grace, Galen's;Zincblende:1,Gum:2,Phlegmatic Base:3,Sanguine Base:3;25
Breath of Death, Simon C's;Marsh Vapor:1,Choleric Base:2,Camomile:1,White Cinnabar:2,Melanc. Base:2;45
Firewall, Maimonides';Naptha:1,Brimstone:3,Orpiment:1,Phlegmatic Base:2,Sanguine Base:2;35
Eyeburn, Galen's;Brimstone:2,Choleric Base:3,Solanaceae:1;35
Noxious Aroma, Gerard C's;Brimstone:4,Choleric Base:1,Melanc. Base:1,Sanguine Base:1;35
Thunderbolt, Maimonides';Brimstone:1,Choleric Base:4,Aqua Regia:2,Manganes:2;35
New-wind, Sina's;Choleric Base:1,Mondragora:1,Eastern Black Bean:2,Sanguine Base:1;25
Transformation, Avicenna's;Brimstone:2,Pure Gold:2,Aqua Regia:1,Antimoni:1,Orpiment:1;35
Thunderbolt, Arnald of V's;Choleric Base:4,Aqua Regia:2,Manganes:2;45
Stone-tar, Rob de K's;Brimstone:2,Melanc. Base:2,Gum:1,Phlegmatic Base:3;45
Truesight, Leonard of M's;Mondragora:1,Solanaceae:1,Phlegmatic Base:1,Camomile:2;45
Breath of Death, al-Kindi;Marsh Vapor:1,Alum:1,White Cinnabar:2,Choleric Base:3,Melanc. Base:3;35
Black Cloud, Michael Scot's;Naptha:1,Choleric Base:1,Pitchblende:1;45
Deadly Blade, Vincent B's;Melanc. Base:1,Mondragora:2,Antimoni:1,Sanguine Base:1,White Cinnabar:2;35
Eater Water, Gerard of C's;Brimstone:2,Aqua Regia:3,Orpiment:2,Phlegmatic Base:1;45
Quickmove, Richard A's;Mondragora:1,Eastern Black Bean:1,Phlegmatic Base:1,Camomile:1;45
Firewall, Raimundus L's;Naptha:1,Antimoni:2,Orpiment:1,Phlegmatic Base:1,Sanguine Base:1;45
Hardarmor, Leonard of M's;Nikel:3,Zinken:2,Aqua Regia:1,Solanaceae:1,Sanguine Base:1;45
Deadly Blade, Roger of H's;Melanc. Base:2,Mondragora:2,Pitchblende:1,Sanguine Base:1,White Cinnabar:1;45
Stone-tar, Sina's;Brimstone:1,Melanc. Base:1,Aqua Regia:1,Gum:1,Phlegmatic Base:3;25
Strongedge, al-Majriti's;Zinken:4,Aqua Regia:1,Gum:1,Sanguine Base:2;25
Stone-tar, Albertus M's;Brimstone:1,Alum:1,Phlegmatic Base:3,Gum:1,Melanc. Base:1;35
Hardarmor, ibn Yazid's;Nikel:2,Zinken:3,Aqua Regia:1,Manganes:1,Sanguine Base:4;25
Fleadust, Richard A's;Nikel:1,Choleric Base:1,Orpiment:1,Sanguine Base:1,White Cinnabar:1;45
Quickmove, John Dausten's;Mondragora:1,Eastern Black Bean:1,Phlegmatic Base:1,Sanguine Base:2;35
Trueflight, al-Bitruji's;Alum:1,Antimoni:1,Solanaceae:2,Choleric Base:3;35
Thunderbolt, al-Tamimi's;Choleric Base:4,Aqua Regia:1,Manganes:2,Orpiment:1;25
Fleadust, Nicolas F's;Nikel:1,Choleric Base:1,Antimoni:2,Sanguine Base:2,White Cinnabar:1;35
Noxious Aroma, al-Razi's;Brimstone:3,Choleric Base:2,Melanc. Base:1,Sanguine Base:1;25
Trueflight, ibn Umail's;Brimstone:2,Alum:1,Antimoni:1,Solanaceae:2,Choleric Base:2;25
Ironarm, Hugh's;Nikel:1,Alum:1,Eastern Black Bean:2,Sanguine Base:1;45
Arabian Fire, Zadith's;Naptha:2,Choleric Base:3,Zincblende:1,Gum:1,Sanguine Base:1;35
Black Cloud, Oriental;Brimstone:1,Choleric Base:1,Zincblende:1,Pitchblende:2,Melanc. Base:1;25
